core/checks/pc_fwd/engine_0/trace.vcd
$version Generated by Yosys-SMTBMC $end
$timescale 1ns $end
$var integer 32 t smt_step $end
$var event 1 ! smt_clock $end
$scope module mfi_testbench $end
$scope module checker_inst $end
$var wire 1 n0 check $end
$var wire 1 n1 clock $end
$var wire 32 n2 expect_pc $end
$var wire 1 n3 expect_pc_valid $end
$var wire 32 n4 inst_order $end
$var wire 4 n5 mfi_dest_addr $end
$var wire 32 n6 mfi_dest_wdata $end
$var wire 1 n7 mfi_halt $end
$var wire 32 n8 mfi_inst $end
$var wire 1 n9 mfi_intr $end
$var wire 32 n10 mfi_mem_addr $end
$var wire 32 n11 mfi_mem_rdata $end
$var wire 4 n12 mfi_mem_rmask $end
$var wire 32 n13 mfi_mem_wdata $end
$var wire 4 n14 mfi_mem_wmask $end
$var wire 32 n15 mfi_order $end
$var wire 32 n16 mfi_pc_rdata $end
$var wire 32 n17 mfi_pc_wdata $end
$var wire 4 n18 mfi_src1_addr $end
$var wire 32 n19 mfi_src1_rdata $end
$var wire 4 n20 mfi_src2_addr $end
$var wire 32 n21 mfi_src2_rdata $end
$var wire 1 n22 mfi_trap $end
$var wire 1 n23 mfi_valid $end
$var wire 32 n24 pc_rdata $end
$var wire 1 n25 reset $end
$upscope $end
$var wire 1 n26 clock $end
$var wire 8 n27 cycle $end
$var wire 8 n28 cycle_reg $end
$var wire 4 n29 mfi_dest_addr $end
$var wire 32 n30 mfi_dest_wdata $end
$var wire 1 n31 mfi_halt $end
$var wire 32 n32 mfi_inst $end
$var wire 1 n33 mfi_intr $end
$var wire 32 n34 mfi_mem_addr $end
$var wire 32 n35 mfi_mem_rdata $end
$var wire 4 n36 mfi_mem_rmask $end
$var wire 32 n37 mfi_mem_wdata $end
$var wire 4 n38 mfi_mem_wmask $end
$var wire 32 n39 mfi_order $end
$var wire 32 n40 mfi_pc_rdata $end
$var wire 32 n41 mfi_pc_wdata $end
$var wire 4 n42 mfi_src1_addr $end
$var wire 32 n43 mfi_src1_rdata $end
$var wire 4 n44 mfi_src2_addr $end
$var wire 32 n45 mfi_src2_rdata $end
$var wire 1 n46 mfi_trap $end
$var wire 1 n47 mfi_valid $end
$var wire 1 n48 reset $end
$scope module wrapper $end
$var wire 1 n49 clock $end
$scope module dut $end
$var wire 32 n50 A $end
$var wire 1 n51 A_src $end
$var wire 32 n52 B $end
$var wire 2 n53 B_src $end
$var wire 3 n54 alu_op $end
$var wire 32 n55 alu_out $end
$var wire 32 n56 alu_sum $end
$var wire 1 n57 br $end
$var wire 1 n58 clk $end
$var wire 4 n59 dest_addr $end
$var wire 16 n60 immediate $end
$var wire 32 n61 inst $end
$var wire 1 n62 inst_valid $end
$var wire 1 n63 ld_ty $end
$var wire 4 n64 mfi_dest_addr $end
$var wire 32 n65 mfi_dest_wdata $end
$var wire 1 n66 mfi_halt $end
$var wire 32 n67 mfi_inst $end
$var wire 1 n68 mfi_intr $end
$var wire 32 n69 mfi_mem_addr $end
$var wire 32 n70 mfi_mem_rdata $end
$var wire 4 n71 mfi_mem_rmask $end
$var wire 32 n72 mfi_mem_wdata $end
$var wire 4 n73 mfi_mem_wmask $end
$var wire 32 n74 mfi_order $end
$var wire 32 n75 mfi_pc_rdata $end
$var wire 32 n76 mfi_pc_wdata $end
$var wire 4 n77 mfi_src1_addr $end
$var wire 32 n78 mfi_src1_rdata $end
$var wire 4 n79 mfi_src2_addr $end
$var wire 32 n80 mfi_src2_rdata $end
$var wire 1 n81 mfi_trap $end
$var wire 1 n82 mfi_valid $end
$var wire 8 n83 opcode $end
$var wire 32 n84 pc $end
$var wire 32 n85 pc4 $end
$var wire 32 n117 regs<0> $end
$var wire 1 n86 reset $end
$var wire 32 n87 src1 $end
$var wire 4 n88 src1_addr $end
$var wire 32 n89 src2 $end
$var wire 4 n90 src2_addr $end
$var wire 1 n91 st_ty $end
$var wire 1 n92 wb $end
$var wire 1 n93 wb_src $end
$upscope $end
$var wire 32 n94 inst $end
$var wire 1 n95 inst_valid $end
$var wire 4 n96 mfi_dest_addr $end
$var wire 32 n97 mfi_dest_wdata $end
$var wire 1 n98 mfi_halt $end
$var wire 32 n99 mfi_inst $end
$var wire 1 n100 mfi_intr $end
$var wire 32 n101 mfi_mem_addr $end
$var wire 32 n102 mfi_mem_rdata $end
$var wire 4 n103 mfi_mem_rmask $end
$var wire 32 n104 mfi_mem_wdata $end
$var wire 4 n105 mfi_mem_wmask $end
$var wire 32 n106 mfi_order $end
$var wire 32 n107 mfi_pc_rdata $end
$var wire 32 n108 mfi_pc_wdata $end
$var wire 4 n109 mfi_src1_addr $end
$var wire 32 n110 mfi_src1_rdata $end
$var wire 4 n111 mfi_src2_addr $end
$var wire 32 n112 mfi_src2_rdata $end
$var wire 1 n113 mfi_trap $end
$var wire 1 n114 mfi_valid $end
$var wire 1 n115 reset $end
$var wire 1 n116 trap $end
$upscope $end
$upscope $end
$enddefinitions $end
#0
1!
b00000000000000000000000000000000 t
b1 n1
b1 n26
b1 n49
b1 n58
b0 n0
b10000000000000000000000001110000 n2
b0 n3
b00000000000000000000000000001110 n4
b0000 n5
b00000000000000000000000000000000 n6
b0 n7
b00000000000000000000000000000000 n8
b0 n9
b00000000000000000000000000000000 n10
b00000000000000000000000000000000 n11
b0000 n12
b00000000000000000000000000000000 n13
b0000 n14
b00000000000000000000000000000000 n15
b00000000000000000000000000000000 n16
b00000000000000000000000000000000 n17
b0000 n18
b00000000000000000000000000000000 n19
b0000 n20
b00000000000000000000000000000000 n21
b0 n22
b0 n23
b00000000000000000000000000000000 n24
b1 n25
b00000000 n27
b00000000 n28
b0000 n29
b00000000000000000000000000000000 n30
b0 n31
b00000000000000000000000000000000 n32
b0 n33
b00000000000000000000000000000000 n34
b00000000000000000000000000000000 n35
b0000 n36
b00000000000000000000000000000000 n37
b0000 n38
b00000000000000000000000000000000 n39
b00000000000000000000000000000000 n40
b00000000000000000000000000000000 n41
b0000 n42
b00000000000000000000000000000000 n43
b0000 n44
b00000000000000000000000000000000 n45
b0 n46
b0 n47
b1 n48
b00000000000000000000000000000000 n50
b0 n51
b00000000000000000000000000000000 n52
b00 n53
b000 n54
b00000000000000000000000000000000 n55
b00000000000000000000000000000000 n56
b0 n57
b0000 n59
b0000000000000000 n60
b00000000000000000000000000000000 n61
b0 n62
b0 n63
b0000 n64
b00000000000000000000000000000000 n65
b0 n66
b00000000000000000000000000000000 n67
b0 n68
b00000000000000000000000000000000 n69
b00000000000000000000000000000000 n70
b0000 n71
b00000000000000000000000000000000 n72
b0000 n73
b00000000000000000000000000000000 n74
b00000000000000000000000000000000 n75
b00000000000000000000000000000000 n76
b0000 n77
b00000000000000000000000000000000 n78
b0000 n79
b00000000000000000000000000000000 n80
b0 n81
b0 n82
b00000000 n83
b00000000000000000000000000000000 n84
b00000000000000000000000000000100 n85
b1 n86
b00000000000000000000000000000000 n87
b0000 n88
b00000000000000000000000000000000 n89
b0000 n90
b0 n91
b0 n92
b0 n93
b00000000000000000000000000000000 n94
b0 n95
b0000 n96
b00000000000000000000000000000000 n97
b0 n98
b00000000000000000000000000000000 n99
b0 n100
b00000000000000000000000000000000 n101
b00000000000000000000000000000000 n102
b0000 n103
b00000000000000000000000000000000 n104
b0000 n105
b00000000000000000000000000000000 n106
b00000000000000000000000000000000 n107
b00000000000000000000000000000000 n108
b0000 n109
b00000000000000000000000000000000 n110
b0000 n111
b00000000000000000000000000000000 n112
b0 n113
b0 n114
b1 n115
b0 n116
b00000000000000000000000000000000 n117
#5
b0 n1
b0 n26
b0 n49
b0 n58
#10
1!
b00000000000000000000000000000001 t
b1 n1
b1 n26
b1 n49
b1 n58
b0 n0
b10000000000000000000000001110000 n2
b0 n3
b00000000000000000000000000001110 n4
b0000 n5
b00000000000000000000000000000000 n6
b0 n7
b00000000000000000000000000000000 n8
b0 n9
b00000000000000000000000000000000 n10
b00000000000000000000000000000000 n11
b0000 n12
b00000000000000000000000000000000 n13
b0000 n14
b00000000000000000000000000000000 n15
b00000000000000000000000000000000 n16
b00000000000000000000000000000100 n17
b0000 n18
b00000000000000000000000000000000 n19
b0000 n20
b00000000000000000000000000000000 n21
b1 n22
b0 n23
b00000000000000000000000000000000 n24
b1 n25
b00000001 n27
b00000001 n28
b0000 n29
b00000000000000000000000000000000 n30
b0 n31
b00000000000000000000000000000000 n32
b0 n33
b00000000000000000000000000000000 n34
b00000000000000000000000000000000 n35
b0000 n36
b00000000000000000000000000000000 n37
b0000 n38
b00000000000000000000000000000000 n39
b00000000000000000000000000000000 n40
b00000000000000000000000000000100 n41
b0000 n42
b00000000000000000000000000000000 n43
b0000 n44
b00000000000000000000000000000000 n45
b1 n46
b0 n47
b0 n48
b00000000000000000000000000000000 n50
b0 n51
b00000000000000000000000000000000 n52
b00 n53
b000 n54
b00000000000000000000000000000000 n55
b00000000000000000000000000000000 n56
b0 n57
b0000 n59
b0000000000000000 n60
b00000000000000000000000000000000 n61
b1 n62
b0 n63
b0000 n64
b00000000000000000000000000000000 n65
b0 n66
b00000000000000000000000000000000 n67
b0 n68
b00000000000000000000000000000000 n69
b00000000000000000000000000000000 n70
b0000 n71
b00000000000000000000000000000000 n72
b0000 n73
b00000000000000000000000000000000 n74
b00000000000000000000000000000000 n75
b00000000000000000000000000000100 n76
b0000 n77
b00000000000000000000000000000000 n78
b0000 n79
b00000000000000000000000000000000 n80
b1 n81
b0 n82
b00000000 n83
b00000000000000000000000000000000 n84
b00000000000000000000000000000100 n85
b0 n86
b00000000000000000000000000000000 n87
b0000 n88
b00000000000000000000000000000000 n89
b0000 n90
b0 n91
b0 n92
b0 n93
b00000000000000000000000000000000 n94
b1 n95
b0000 n96
b00000000000000000000000000000000 n97
b0 n98
b00000000000000000000000000000000 n99
b0 n100
b00000000000000000000000000000000 n101
b00000000000000000000000000000000 n102
b0000 n103
b00000000000000000000000000000000 n104
b0000 n105
b00000000000000000000000000000000 n106
b00000000000000000000000000000000 n107
b00000000000000000000000000000100 n108
b0000 n109
b00000000000000000000000000000000 n110
b0000 n111
b00000000000000000000000000000000 n112
b1 n113
b0 n114
b0 n115
b0 n116
b00000000000000000000000000000000 n117
#15
b0 n1
b0 n26
b0 n49
b0 n58
#20
1!
b00000000000000000000000000000010 t
b1 n1
b1 n26
b1 n49
b1 n58
b0 n0
b10000000000000000000000001110000 n2
b0 n3
b00000000000000000000000000001110 n4
b0000 n5
b00000000000000000000000000000000 n6
b0 n7
b00000000000000000000000000000000 n8
b0 n9
b00000000000000000000000000000000 n10
b00000000000000000000000000000000 n11
b0000 n12
b00000000000000000000000000000000 n13
b0000 n14
b00000000000000000000000000000000 n15
b00000000000000000000000000000000 n16
b00000000000000000000000000000100 n17
b0000 n18
b00000000000000000000000000000000 n19
b0000 n20
b00000000000000000000000000000000 n21
b1 n22
b1 n23
b00000000000000000000000000000000 n24
b1 n25
b00000010 n27
b00000010 n28
b0000 n29
b00000000000000000000000000000000 n30
b0 n31
b00000000000000000000000000000000 n32
b0 n33
b00000000000000000000000000000000 n34
b00000000000000000000000000000000 n35
b0000 n36
b00000000000000000000000000000000 n37
b0000 n38
b00000000000000000000000000000000 n39
b00000000000000000000000000000000 n40
b00000000000000000000000000000100 n41
b0000 n42
b00000000000000000000000000000000 n43
b0000 n44
b00000000000000000000000000000000 n45
b1 n46
b1 n47
b0 n48
b00000000000000000000000000000000 n50
b0 n51
b00000000000000000000000000000000 n52
b00 n53
b000 n54
b00000000000000000000000000000000 n55
b00000000000000000000000000000000 n56
b0 n57
b0000 n59
b0000000000000000 n60
b00000000000000000000000000000000 n61
b1 n62
b0 n63
b0000 n64
b00000000000000000000000000000000 n65
b0 n66
b00000000000000000000000000000000 n67
b0 n68
b00000000000000000000000000000000 n69
b00000000000000000000000000000000 n70
b0000 n71
b00000000000000000000000000000000 n72
b0000 n73
b00000000000000000000000000000000 n74
b00000000000000000000000000000000 n75
b00000000000000000000000000000100 n76
b0000 n77
b00000000000000000000000000000000 n78
b0000 n79
b00000000000000000000000000000000 n80
b1 n81
b1 n82
b00000000 n83
b00000000000000000000000000000100 n84
b00000000000000000000000000001000 n85
b0 n86
b00000000000000000000000000000000 n87
b0000 n88
b00000000000000000000000000000000 n89
b0000 n90
b0 n91
b0 n92
b0 n93
b00000000000000000000000000000000 n94
b1 n95
b0000 n96
b00000000000000000000000000000000 n97
b0 n98
b00000000000000000000000000000000 n99
b0 n100
b00000000000000000000000000000000 n101
b00000000000000000000000000000000 n102
b0000 n103
b00000000000000000000000000000000 n104
b0000 n105
b00000000000000000000000000000000 n106
b00000000000000000000000000000000 n107
b00000000000000000000000000000100 n108
b0000 n109
b00000000000000000000000000000000 n110
b0000 n111
b00000000000000000000000000000000 n112
b1 n113
b1 n114
b0 n115
b0 n116
b00000000000000000000000000000000 n117
#25
b0 n1
b0 n26
b0 n49
b0 n58
#30
1!
b00000000000000000000000000000011 t
b1 n1
b1 n26
b1 n49
b1 n58
b0 n0
b10000000000000000000000001110000 n2
b0 n3
b00000000000000000000000000001110 n4
b0000 n5
b00000000000000000000000000000000 n6
b0 n7
b00000000000000000000000000000000 n8
b0 n9
b00000000000000000000000000000000 n10
b00000000000000000000000000000000 n11
b0000 n12
b00000000000000000000000000000000 n13
b0000 n14
b00000000000000000000000000000001 n15
b00000000000000000000000000000100 n16
b00000000000000000000000000001000 n17
b0000 n18
b00000000000000000000000000000000 n19
b0000 n20
b00000000000000000000000000000000 n21
b1 n22
b1 n23
b00000000000000000000000000000100 n24
b1 n25
b00000011 n27
b00000011 n28
b0000 n29
b00000000000000000000000000000000 n30
b0 n31
b00000000000000000000000000000000 n32
b0 n33
b00000000000000000000000000000000 n34
b00000000000000000000000000000000 n35
b0000 n36
b00000000000000000000000000000000 n37
b0000 n38
b00000000000000000000000000000001 n39
b00000000000000000000000000000100 n40
b00000000000000000000000000001000 n41
b0000 n42
b00000000000000000000000000000000 n43
b0000 n44
b00000000000000000000000000000000 n45
b1 n46
b1 n47
b0 n48
b00000000000000000000000000000000 n50
b0 n51
b00000000000000000000000000000000 n52
b00 n53
b000 n54
b00000000000000000000000000000000 n55
b00000000000000000000000000000000 n56
b0 n57
b0000 n59
b0000000000000000 n60
b00000000000000000000000000000000 n61
b1 n62
b0 n63
b0000 n64
b00000000000000000000000000000000 n65
b0 n66
b00000000000000000000000000000000 n67
b0 n68
b00000000000000000000000000000000 n69
b00000000000000000000000000000000 n70
b0000 n71
b00000000000000000000000000000000 n72
b0000 n73
b00000000000000000000000000000001 n74
b00000000000000000000000000000100 n75
b00000000000000000000000000001000 n76
b0000 n77
b00000000000000000000000000000000 n78
b0000 n79
b00000000000000000000000000000000 n80
b1 n81
b1 n82
b00000000 n83
b00000000000000000000000000001000 n84
b00000000000000000000000000001100 n85
b0 n86
b00000000000000000000000000000000 n87
b0000 n88
b00000000000000000000000000000000 n89
b0000 n90
b0 n91
b0 n92
b0 n93
b00000000000000000000000000000000 n94
b1 n95
b0000 n96
b00000000000000000000000000000000 n97
b0 n98
b00000000000000000000000000000000 n99
b0 n100
b00000000000000000000000000000000 n101
b00000000000000000000000000000000 n102
b0000 n103
b00000000000000000000000000000000 n104
b0000 n105
b00000000000000000000000000000001 n106
b00000000000000000000000000000100 n107
b00000000000000000000000000001000 n108
b0000 n109
b00000000000000000000000000000000 n110
b0000 n111
b00000000000000000000000000000000 n112
b1 n113
b1 n114
b0 n115
b0 n116
b00000000000000000000000000000000 n117
#35
b0 n1
b0 n26
b0 n49
b0 n58
#40
1!
b00000000000000000000000000000100 t
b1 n1
b1 n26
b1 n49
b1 n58
b0 n0
b10000000000000000000000001110000 n2
b0 n3
b00000000000000000000000000001110 n4
b0000 n5
b00000000000000000000000000000000 n6
b0 n7
b00000000000000000000000000000000 n8
b0 n9
b00000000000000000000000000000000 n10
b00000000000000000000000000000000 n11
b0000 n12
b00000000000000000000000000000000 n13
b0000 n14
b00000000000000000000000000000010 n15
b00000000000000000000000000001000 n16
b00000000000000000000000000001100 n17
b0000 n18
b00000000000000000000000000000000 n19
b0000 n20
b00000000000000000000000000000000 n21
b1 n22
b1 n23
b00000000000000000000000000001000 n24
b1 n25
b00000100 n27
b00000100 n28
b0000 n29
b00000000000000000000000000000000 n30
b0 n31
b00000000000000000000000000000000 n32
b0 n33
b00000000000000000000000000000000 n34
b00000000000000000000000000000000 n35
b0000 n36
b00000000000000000000000000000000 n37
b0000 n38
b00000000000000000000000000000010 n39
b00000000000000000000000000001000 n40
b00000000000000000000000000001100 n41
b0000 n42
b00000000000000000000000000000000 n43
b0000 n44
b00000000000000000000000000000000 n45
b1 n46
b1 n47
b0 n48
b00000000000000000000000000000000 n50
b0 n51
b00000000000000000000000000000000 n52
b00 n53
b000 n54
b00000000000000000000000000000000 n55
b00000000000000000000000000000000 n56
b0 n57
b0000 n59
b0000000000000000 n60
b00000000000000000000000000000000 n61
b1 n62
b0 n63
b0000 n64
b00000000000000000000000000000000 n65
b0 n66
b00000000000000000000000000000000 n67
b0 n68
b00000000000000000000000000000000 n69
b00000000000000000000000000000000 n70
b0000 n71
b00000000000000000000000000000000 n72
b0000 n73
b00000000000000000000000000000010 n74
b00000000000000000000000000001000 n75
b00000000000000000000000000001100 n76
b0000 n77
b00000000000000000000000000000000 n78
b0000 n79
b00000000000000000000000000000000 n80
b1 n81
b1 n82
b00000000 n83
b00000000000000000000000000001100 n84
b00000000000000000000000000010000 n85
b0 n86
b00000000000000000000000000000000 n87
b0000 n88
b00000000000000000000000000000000 n89
b0000 n90
b0 n91
b0 n92
b0 n93
b00000000000000000000000000000000 n94
b1 n95
b0000 n96
b00000000000000000000000000000000 n97
b0 n98
b00000000000000000000000000000000 n99
b0 n100
b00000000000000000000000000000000 n101
b00000000000000000000000000000000 n102
b0000 n103
b00000000000000000000000000000000 n104
b0000 n105
b00000000000000000000000000000010 n106
b00000000000000000000000000001000 n107
b00000000000000000000000000001100 n108
b0000 n109
b00000000000000000000000000000000 n110
b0000 n111
b00000000000000000000000000000000 n112
b1 n113
b1 n114
b0 n115
b0 n116
b00000000000000000000000000000000 n117
#45
b0 n1
b0 n26
b0 n49
b0 n58
#50
1!
b00000000000000000000000000000101 t
b1 n1
b1 n26
b1 n49
b1 n58
b0 n0
b10000000000000000000000001110000 n2
b0 n3
b00000000000000000000000000001110 n4
b0000 n5
b00000000000000000000000000000000 n6
b0 n7
b00000000000000000000000000000000 n8
b0 n9
b00000000000000000000000000000000 n10
b00000000000000000000000000000000 n11
b0000 n12
b00000000000000000000000000000000 n13
b0000 n14
b00000000000000000000000000000011 n15
b00000000000000000000000000001100 n16
b00000000000000000000000000010000 n17
b0000 n18
b00000000000000000000000000000000 n19
b0000 n20
b00000000000000000000000000000000 n21
b1 n22
b1 n23
b00000000000000000000000000001100 n24
b1 n25
b00000101 n27
b00000101 n28
b0000 n29
b00000000000000000000000000000000 n30
b0 n31
b00000000000000000000000000000000 n32
b0 n33
b00000000000000000000000000000000 n34
b00000000000000000000000000000000 n35
b0000 n36
b00000000000000000000000000000000 n37
b0000 n38
b00000000000000000000000000000011 n39
b00000000000000000000000000001100 n40
b00000000000000000000000000010000 n41
b0000 n42
b00000000000000000000000000000000 n43
b0000 n44
b00000000000000000000000000000000 n45
b1 n46
b1 n47
b0 n48
b00000000000000000000000000000000 n50
b0 n51
b00000000000000000000000000000000 n52
b00 n53
b000 n54
b00000000000000000000000000000000 n55
b00000000000000000000000000000000 n56
b0 n57
b0000 n59
b0000000000000000 n60
b00000000000000000000000000000000 n61
b1 n62
b0 n63
b0000 n64
b00000000000000000000000000000000 n65
b0 n66
b00000000000000000000000000000000 n67
b0 n68
b00000000000000000000000000000000 n69
b00000000000000000000000000000000 n70
b0000 n71
b00000000000000000000000000000000 n72
b0000 n73
b00000000000000000000000000000011 n74
b00000000000000000000000000001100 n75
b00000000000000000000000000010000 n76
b0000 n77
b00000000000000000000000000000000 n78
b0000 n79
b00000000000000000000000000000000 n80
b1 n81
b1 n82
b00000000 n83
b00000000000000000000000000010000 n84
b00000000000000000000000000010100 n85
b0 n86
b00000000000000000000000000000000 n87
b0000 n88
b00000000000000000000000000000000 n89
b0000 n90
b0 n91
b0 n92
b0 n93
b00000000000000000000000000000000 n94
b1 n95
b0000 n96
b00000000000000000000000000000000 n97
b0 n98
b00000000000000000000000000000000 n99
b0 n100
b00000000000000000000000000000000 n101
b00000000000000000000000000000000 n102
b0000 n103
b00000000000000000000000000000000 n104
b0000 n105
b00000000000000000000000000000011 n106
b00000000000000000000000000001100 n107
b00000000000000000000000000010000 n108
b0000 n109
b00000000000000000000000000000000 n110
b0000 n111
b00000000000000000000000000000000 n112
b1 n113
b1 n114
b0 n115
b0 n116
b00000000000000000000000000000000 n117
#55
b0 n1
b0 n26
b0 n49
b0 n58
#60
1!
b00000000000000000000000000000110 t
b1 n1
b1 n26
b1 n49
b1 n58
b0 n0
b10000000000000000000000001110000 n2
b0 n3
b00000000000000000000000000001110 n4
b0000 n5
b00000000000000000000000000000000 n6
b0 n7
b00000000000000000000000000000000 n8
b0 n9
b00000000000000000000000000000000 n10
b00000000000000000000000000000000 n11
b0000 n12
b00000000000000000000000000000000 n13
b0000 n14
b00000000000000000000000000000100 n15
b00000000000000000000000000010000 n16
b00000000000000000000000000010100 n17
b0000 n18
b00000000000000000000000000000000 n19
b0000 n20
b00000000000000000000000000000000 n21
b1 n22
b1 n23
b00000000000000000000000000010000 n24
b1 n25
b00000110 n27
b00000110 n28
b0000 n29
b00000000000000000000000000000000 n30
b0 n31
b00000000000000000000000000000000 n32
b0 n33
b00000000000000000000000000000000 n34
b00000000000000000000000000000000 n35
b0000 n36
b00000000000000000000000000000000 n37
b0000 n38
b00000000000000000000000000000100 n39
b00000000000000000000000000010000 n40
b00000000000000000000000000010100 n41
b0000 n42
b00000000000000000000000000000000 n43
b0000 n44
b00000000000000000000000000000000 n45
b1 n46
b1 n47
b0 n48
b00000000000000000000000000000000 n50
b0 n51
b00000000000000000000000000000000 n52
b00 n53
b000 n54
b00000000000000000000000000000000 n55
b00000000000000000000000000000000 n56
b0 n57
b0000 n59
b0000000000000000 n60
b00000000000000000000000000000000 n61
b1 n62
b0 n63
b0000 n64
b00000000000000000000000000000000 n65
b0 n66
b00000000000000000000000000000000 n67
b0 n68
b00000000000000000000000000000000 n69
b00000000000000000000000000000000 n70
b0000 n71
b00000000000000000000000000000000 n72
b0000 n73
b00000000000000000000000000000100 n74
b00000000000000000000000000010000 n75
b00000000000000000000000000010100 n76
b0000 n77
b00000000000000000000000000000000 n78
b0000 n79
b00000000000000000000000000000000 n80
b1 n81
b1 n82
b00000000 n83
b00000000000000000000000000010100 n84
b00000000000000000000000000011000 n85
b0 n86
b00000000000000000000000000000000 n87
b0000 n88
b00000000000000000000000000000000 n89
b0000 n90
b0 n91
b0 n92
b0 n93
b00000000000000000000000000000000 n94
b1 n95
b0000 n96
b00000000000000000000000000000000 n97
b0 n98
b00000000000000000000000000000000 n99
b0 n100
b00000000000000000000000000000000 n101
b00000000000000000000000000000000 n102
b0000 n103
b00000000000000000000000000000000 n104
b0000 n105
b00000000000000000000000000000100 n106
b00000000000000000000000000010000 n107
b00000000000000000000000000010100 n108
b0000 n109
b00000000000000000000000000000000 n110
b0000 n111
b00000000000000000000000000000000 n112
b1 n113
b1 n114
b0 n115
b0 n116
b00000000000000000000000000000000 n117
#65
b0 n1
b0 n26
b0 n49
b0 n58
#70
1!
b00000000000000000000000000000111 t
b1 n1
b1 n26
b1 n49
b1 n58
b0 n0
b10000000000000000000000001110000 n2
b0 n3
b00000000000000000000000000001110 n4
b0000 n5
b00000000000000000000000000000000 n6
b0 n7
b00000000000000000000000000000000 n8
b0 n9
b00000000000000000000000000000000 n10
b00000000000000000000000000000000 n11
b0000 n12
b00000000000000000000000000000000 n13
b0000 n14
b00000000000000000000000000000101 n15
b00000000000000000000000000010100 n16
b00000000000000000000000000011000 n17
b0000 n18
b00000000000000000000000000000000 n19
b0000 n20
b00000000000000000000000000000000 n21
b1 n22
b1 n23
b00000000000000000000000000010100 n24
b1 n25
b00000111 n27
b00000111 n28
b0000 n29
b00000000000000000000000000000000 n30
b0 n31
b00000000000000000000000000000000 n32
b0 n33
b00000000000000000000000000000000 n34
b00000000000000000000000000000000 n35
b0000 n36
b00000000000000000000000000000000 n37
b0000 n38
b00000000000000000000000000000101 n39
b00000000000000000000000000010100 n40
b00000000000000000000000000011000 n41
b0000 n42
b00000000000000000000000000000000 n43
b0000 n44
b00000000000000000000000000000000 n45
b1 n46
b1 n47
b0 n48
b00000000000000000000000000000000 n50
b0 n51
b00000000000000000000000000000000 n52
b00 n53
b000 n54
b00000000000000000000000000000000 n55
b00000000000000000000000000000000 n56
b0 n57
b0000 n59
b0000000000000000 n60
b00000000000000000000000000000000 n61
b1 n62
b0 n63
b0000 n64
b00000000000000000000000000000000 n65
b0 n66
b00000000000000000000000000000000 n67
b0 n68
b00000000000000000000000000000000 n69
b00000000000000000000000000000000 n70
b0000 n71
b00000000000000000000000000000000 n72
b0000 n73
b00000000000000000000000000000101 n74
b00000000000000000000000000010100 n75
b00000000000000000000000000011000 n76
b0000 n77
b00000000000000000000000000000000 n78
b0000 n79
b00000000000000000000000000000000 n80
b1 n81
b1 n82
b00000000 n83
b00000000000000000000000000011000 n84
b00000000000000000000000000011100 n85
b0 n86
b00000000000000000000000000000000 n87
b0000 n88
b00000000000000000000000000000000 n89
b0000 n90
b0 n91
b0 n92
b0 n93
b00000000000000000000000000000000 n94
b1 n95
b0000 n96
b00000000000000000000000000000000 n97
b0 n98
b00000000000000000000000000000000 n99
b0 n100
b00000000000000000000000000000000 n101
b00000000000000000000000000000000 n102
b0000 n103
b00000000000000000000000000000000 n104
b0000 n105
b00000000000000000000000000000101 n106
b00000000000000000000000000010100 n107
b00000000000000000000000000011000 n108
b0000 n109
b00000000000000000000000000000000 n110
b0000 n111
b00000000000000000000000000000000 n112
b1 n113
b1 n114
b0 n115
b0 n116
b00000000000000000000000000000000 n117
#75
b0 n1
b0 n26
b0 n49
b0 n58
#80
1!
b00000000000000000000000000001000 t
b1 n1
b1 n26
b1 n49
b1 n58
b0 n0
b10000000000000000000000001110000 n2
b0 n3
b00000000000000000000000000001110 n4
b0000 n5
b00000000000000000000000000000000 n6
b0 n7
b00000000000000000000000000000000 n8
b0 n9
b00000000000000000000000000000000 n10
b00000000000000000000000000000000 n11
b0000 n12
b00000000000000000000000000000000 n13
b0000 n14
b00000000000000000000000000000110 n15
b00000000000000000000000000011000 n16
b00000000000000000000000000011100 n17
b0000 n18
b00000000000000000000000000000000 n19
b0000 n20
b00000000000000000000000000000000 n21
b1 n22
b1 n23
b00000000000000000000000000011000 n24
b1 n25
b00001000 n27
b00001000 n28
b0000 n29
b00000000000000000000000000000000 n30
b0 n31
b00000000000000000000000000000000 n32
b0 n33
b00000000000000000000000000000000 n34
b00000000000000000000000000000000 n35
b0000 n36
b00000000000000000000000000000000 n37
b0000 n38
b00000000000000000000000000000110 n39
b00000000000000000000000000011000 n40
b00000000000000000000000000011100 n41
b0000 n42
b00000000000000000000000000000000 n43
b0000 n44
b00000000000000000000000000000000 n45
b1 n46
b1 n47
b0 n48
b00000000000000000000000000000000 n50
b0 n51
b00000000000000000000000000000000 n52
b00 n53
b000 n54
b00000000000000000000000000000000 n55
b00000000000000000000000000000000 n56
b0 n57
b0000 n59
b0000000000000000 n60
b00000000000000000000000000000000 n61
b1 n62
b0 n63
b0000 n64
b00000000000000000000000000000000 n65
b0 n66
b00000000000000000000000000000000 n67
b0 n68
b00000000000000000000000000000000 n69
b00000000000000000000000000000000 n70
b0000 n71
b00000000000000000000000000000000 n72
b0000 n73
b00000000000000000000000000000110 n74
b00000000000000000000000000011000 n75
b00000000000000000000000000011100 n76
b0000 n77
b00000000000000000000000000000000 n78
b0000 n79
b00000000000000000000000000000000 n80
b1 n81
b1 n82
b00000000 n83
b00000000000000000000000000011100 n84
b00000000000000000000000000100000 n85
b0 n86
b00000000000000000000000000000000 n87
b0000 n88
b00000000000000000000000000000000 n89
b0000 n90
b0 n91
b0 n92
b0 n93
b00000000000000000000000000000000 n94
b1 n95
b0000 n96
b00000000000000000000000000000000 n97
b0 n98
b00000000000000000000000000000000 n99
b0 n100
b00000000000000000000000000000000 n101
b00000000000000000000000000000000 n102
b0000 n103
b00000000000000000000000000000000 n104
b0000 n105
b00000000000000000000000000000110 n106
b00000000000000000000000000011000 n107
b00000000000000000000000000011100 n108
b0000 n109
b00000000000000000000000000000000 n110
b0000 n111
b00000000000000000000000000000000 n112
b1 n113
b1 n114
b0 n115
b0 n116
b00000000000000000000000000000000 n117
#85
b0 n1
b0 n26
b0 n49
b0 n58
