core/checks/inst_ld/engine_0/trace.vcd
$version Generated by Yosys-SMTBMC $end
$timescale 1ns $end
$var integer 32 t smt_step $end
$var event 1 ! smt_clock $end
$scope module mfi_testbench $end
$scope module checker_inst $end
$var wire 1 n0 check $end
$var wire 1 n1 clock $end
$var wire 4 n2 dest_addr $end
$var wire 32 n3 dest_wdata $end
$var wire 1 n4 halt $end
$var wire 32 n5 inst $end
$scope module inst_spec $end
$var wire 32 n6 addr $end
$var wire 4 n7 inst_dest $end
$var wire 12 n8 inst_imm $end
$var wire 32 n9 inst_imms $end
$var wire 8 n10 inst_opcode $end
$var wire 32 n11 inst_padding $end
$var wire 4 n12 inst_shift $end
$var wire 4 n13 inst_src1 $end
$var wire 32 n14 mfi_inst $end
$var wire 32 n15 mfi_mem_rdata $end
$var wire 32 n16 mfi_pc_rdata $end
$var wire 32 n17 mfi_src1_rdata $end
$var wire 32 n18 mfi_src2_rdata $end
$var wire 1 n19 mfi_valid $end
$var wire 32 n20 result $end
$var wire 4 n21 spec_dest_addr $end
$var wire 32 n22 spec_dest_wdata $end
$var wire 32 n23 spec_mem_addr $end
$var wire 4 n24 spec_mem_rmask $end
$var wire 32 n25 spec_mem_wdata $end
$var wire 4 n26 spec_mem_wmask $end
$var wire 32 n27 spec_pc_wdata $end
$var wire 4 n28 spec_src1_addr $end
$var wire 4 n29 spec_src2_addr $end
$var wire 1 n30 spec_trap $end
$var wire 1 n31 spec_valid $end
$upscope $end
$var wire 1 n32 intr $end
$var wire 32 n33 mem_addr $end
$var wire 32 n34 mem_rdata $end
$var wire 4 n35 mem_rmask $end
$var wire 32 n36 mem_wdata $end
$var wire 4 n37 mem_wmask $end
$var wire 4 n38 mfi_dest_addr $end
$var wire 32 n39 mfi_dest_wdata $end
$var wire 1 n40 mfi_halt $end
$var wire 32 n41 mfi_inst $end
$var wire 1 n42 mfi_intr $end
$var wire 32 n43 mfi_mem_addr $end
$var wire 32 n44 mfi_mem_rdata $end
$var wire 4 n45 mfi_mem_rmask $end
$var wire 32 n46 mfi_mem_wdata $end
$var wire 4 n47 mfi_mem_wmask $end
$var wire 32 n48 mfi_order $end
$var wire 32 n49 mfi_pc_rdata $end
$var wire 32 n50 mfi_pc_wdata $end
$var wire 4 n51 mfi_src1_addr $end
$var wire 32 n52 mfi_src1_rdata $end
$var wire 4 n53 mfi_src2_addr $end
$var wire 32 n54 mfi_src2_rdata $end
$var wire 1 n55 mfi_trap $end
$var wire 1 n56 mfi_valid $end
$var wire 32 n57 pc_rdata $end
$var wire 32 n58 pc_wdata $end
$var wire 1 n59 reset $end
$var wire 4 n60 spec_dest_addr $end
$var wire 32 n61 spec_dest_wdata $end
$var wire 32 n62 spec_mem_addr $end
$var wire 4 n63 spec_mem_rmask $end
$var wire 32 n64 spec_mem_wdata $end
$var wire 4 n65 spec_mem_wmask $end
$var wire 32 n66 spec_pc_wdata $end
$var wire 4 n67 spec_src1_addr $end
$var wire 4 n68 spec_src2_addr $end
$var wire 1 n69 spec_trap $end
$var wire 1 n70 spec_valid $end
$var wire 4 n71 src1_addr $end
$var wire 32 n72 src1_rdata $end
$var wire 4 n73 src2_addr $end
$var wire 32 n74 src2_rdata $end
$var wire 1 n75 trap $end
$var wire 1 n76 valid $end
$upscope $end
$var wire 1 n77 clock $end
$var wire 8 n78 cycle $end
$var wire 8 n79 cycle_reg $end
$var wire 4 n80 mfi_dest_addr $end
$var wire 32 n81 mfi_dest_wdata $end
$var wire 1 n82 mfi_halt $end
$var wire 32 n83 mfi_inst $end
$var wire 1 n84 mfi_intr $end
$var wire 32 n85 mfi_mem_addr $end
$var wire 32 n86 mfi_mem_rdata $end
$var wire 4 n87 mfi_mem_rmask $end
$var wire 32 n88 mfi_mem_wdata $end
$var wire 4 n89 mfi_mem_wmask $end
$var wire 32 n90 mfi_order $end
$var wire 32 n91 mfi_pc_rdata $end
$var wire 32 n92 mfi_pc_wdata $end
$var wire 4 n93 mfi_src1_addr $end
$var wire 32 n94 mfi_src1_rdata $end
$var wire 4 n95 mfi_src2_addr $end
$var wire 32 n96 mfi_src2_rdata $end
$var wire 1 n97 mfi_trap $end
$var wire 1 n98 mfi_valid $end
$var wire 1 n99 reset $end
$scope module wrapper $end
$var wire 1 n100 clock $end
$scope module dut $end
$var wire 32 n101 A $end
$var wire 1 n102 A_src $end
$var wire 32 n103 B $end
$var wire 2 n104 B_src $end
$var wire 3 n105 alu_op $end
$var wire 32 n106 alu_out $end
$var wire 32 n107 alu_sum $end
$var wire 1 n108 br $end
$var wire 1 n109 clk $end
$var wire 4 n110 dest_addr $end
$var wire 16 n111 immediate $end
$var wire 32 n112 inst $end
$var wire 1 n113 inst_valid $end
$var wire 1 n114 ld_ty $end
$var wire 4 n115 mfi_dest_addr $end
$var wire 32 n116 mfi_dest_wdata $end
$var wire 1 n117 mfi_halt $end
$var wire 32 n118 mfi_inst $end
$var wire 1 n119 mfi_intr $end
$var wire 32 n120 mfi_mem_addr $end
$var wire 32 n121 mfi_mem_rdata $end
$var wire 4 n122 mfi_mem_rmask $end
$var wire 32 n123 mfi_mem_wdata $end
$var wire 4 n124 mfi_mem_wmask $end
$var wire 32 n125 mfi_order $end
$var wire 32 n126 mfi_pc_rdata $end
$var wire 32 n127 mfi_pc_wdata $end
$var wire 4 n128 mfi_src1_addr $end
$var wire 32 n129 mfi_src1_rdata $end
$var wire 4 n130 mfi_src2_addr $end
$var wire 32 n131 mfi_src2_rdata $end
$var wire 1 n132 mfi_trap $end
$var wire 1 n133 mfi_valid $end
$var wire 8 n134 opcode $end
$var wire 32 n135 pc $end
$var wire 32 n136 pc4 $end
$var wire 32 n176 regs<0> $end
$var wire 32 n168 regs<1> $end
$var wire 32 n171 regs<2> $end
$var wire 32 n175 regs<3> $end
$var wire 32 n172 regs<4> $end
$var wire 32 n182 regs<5> $end
$var wire 32 n183 regs<6> $end
$var wire 32 n180 regs<7> $end
$var wire 32 n170 regs<8> $end
$var wire 32 n181 regs<9> $end
$var wire 32 n173 regs<a> $end
$var wire 32 n174 regs<b> $end
$var wire 32 n169 regs<c> $end
$var wire 32 n178 regs<d> $end
$var wire 32 n179 regs<e> $end
$var wire 32 n177 regs<f> $end
$var wire 1 n137 reset $end
$var wire 32 n138 src1 $end
$var wire 4 n139 src1_addr $end
$var wire 32 n140 src2 $end
$var wire 4 n141 src2_addr $end
$var wire 1 n142 st_ty $end
$var wire 1 n143 wb $end
$var wire 1 n144 wb_src $end
$upscope $end
$var wire 32 n145 inst $end
$var wire 1 n146 inst_valid $end
$var wire 4 n147 mfi_dest_addr $end
$var wire 32 n148 mfi_dest_wdata $end
$var wire 1 n149 mfi_halt $end
$var wire 32 n150 mfi_inst $end
$var wire 1 n151 mfi_intr $end
$var wire 32 n152 mfi_mem_addr $end
$var wire 32 n153 mfi_mem_rdata $end
$var wire 4 n154 mfi_mem_rmask $end
$var wire 32 n155 mfi_mem_wdata $end
$var wire 4 n156 mfi_mem_wmask $end
$var wire 32 n157 mfi_order $end
$var wire 32 n158 mfi_pc_rdata $end
$var wire 32 n159 mfi_pc_wdata $end
$var wire 4 n160 mfi_src1_addr $end
$var wire 32 n161 mfi_src1_rdata $end
$var wire 4 n162 mfi_src2_addr $end
$var wire 32 n163 mfi_src2_rdata $end
$var wire 1 n164 mfi_trap $end
$var wire 1 n165 mfi_valid $end
$var wire 1 n166 reset $end
$var wire 1 n167 trap $end
$upscope $end
$upscope $end
$enddefinitions $end
#0
1!
b00000000000000000000000000000000 t
b1 n1
b1 n77
b1 n100
b1 n109
b0 n0
b0000 n2
b00000000000000000000000000000000 n3
b0 n4
b00000000000000000000000000000000 n5
b00000000000000000000000000000000 n6
b0000 n7
b000000000000 n8
b00000000000000000000000000000000 n9
b00000000 n10
b00000000000000000000000000000000 n11
b0000 n12
b0000 n13
b00000000000000000000000000000000 n14
b00000000000000000000000000000000 n15
b00000000000000000000000000000000 n16
b00000000000000000000000000000000 n17
b00000000000000000000000000000000 n18
b0 n19
b00000000000000000000000000000000 n20
b0000 n21
b00000000000000000000000000000000 n22
b00000000000000000000000000000000 n23
b1111 n24
b00000000000000000000000000000000 n25
b0000 n26
b00000000000000000000000000000100 n27
b0000 n28
b0000 n29
b0 n30
b0 n31
b0 n32
b00000000000000000000000000000000 n33
b00000000000000000000000000000000 n34
b0000 n35
b00000000000000000000000000000000 n36
b0000 n37
b0000 n38
b00000000000000000000000000000000 n39
b0 n40
b00000000000000000000000000000000 n41
b0 n42
b00000000000000000000000000000000 n43
b00000000000000000000000000000000 n44
b0000 n45
b00000000000000000000000000000000 n46
b0000 n47
b00000000000000000000000000000000 n48
b00000000000000000000000000000000 n49
b00000000000000000000000000000000 n50
b0000 n51
b00000000000000000000000000000000 n52
b0000 n53
b00000000000000000000000000000000 n54
b0 n55
b0 n56
b00000000000000000000000000000000 n57
b00000000000000000000000000000000 n58
b1 n59
b0000 n60
b00000000000000000000000000000000 n61
b00000000000000000000000000000000 n62
b1111 n63
b00000000000000000000000000000000 n64
b0000 n65
b00000000000000000000000000000100 n66
b0000 n67
b0000 n68
b0 n69
b0 n70
b0000 n71
b00000000000000000000000000000000 n72
b0000 n73
b00000000000000000000000000000000 n74
b0 n75
b0 n76
b00000000 n78
b00000000 n79
b0000 n80
b00000000000000000000000000000000 n81
b0 n82
b00000000000000000000000000000000 n83
b0 n84
b00000000000000000000000000000000 n85
b00000000000000000000000000000000 n86
b0000 n87
b00000000000000000000000000000000 n88
b0000 n89
b00000000000000000000000000000000 n90
b00000000000000000000000000000000 n91
b00000000000000000000000000000000 n92
b0000 n93
b00000000000000000000000000000000 n94
b0000 n95
b00000000000000000000000000000000 n96
b0 n97
b0 n98
b1 n99
b10111111011000010101000001110110 n101
b0 n102
b11000010011101110110101110101100 n103
b00 n104
b000 n105
b10000001110110001011110000100010 n106
b10000001110110001011110000100010 n107
b0 n108
b0101 n110
b0000000000000000 n111
b00001001001111010101000000000000 n112
b0 n113
b0 n114
b0000 n115
b00000000000000000000000000000000 n116
b0 n117
b00000000000000000000000000000000 n118
b0 n119
b00000000000000000000000000000000 n120
b00000000000000000000000000000000 n121
b0000 n122
b00000000000000000000000000000000 n123
b0000 n124
b00000000000000000000000000000000 n125
b00000000000000000000000000000000 n126
b00000000000000000000000000000000 n127
b0000 n128
b00000000000000000000000000000000 n129
b0000 n130
b00000000000000000000000000000000 n131
b0 n132
b0 n133
b00001001 n134
b00000000000000000000000000000000 n135
b00000000000000000000000000000100 n136
b1 n137
b10111111011000010101000001110110 n138
b0011 n139
b11000010011101110110101110101100 n140
b1101 n141
b0 n142
b0 n143
b0 n144
b00001001001111010101000000000000 n145
b0 n146
b0000 n147
b00000000000000000000000000000000 n148
b0 n149
b00000000000000000000000000000000 n150
b0 n151
b00000000000000000000000000000000 n152
b00000000000000000000000000000000 n153
b0000 n154
b00000000000000000000000000000000 n155
b0000 n156
b00000000000000000000000000000000 n157
b00000000000000000000000000000000 n158
b00000000000000000000000000000000 n159
b0000 n160
b00000000000000000000000000000000 n161
b0000 n162
b00000000000000000000000000000000 n163
b0 n164
b0 n165
b1 n166
b0 n167
b00010000000000000000111111110111 n168
b00010011011000100000011000001100 n169
b00010000000000000000111111110111 n170
b00010000000000000000111111110111 n171
b00110111011000000000000000011110 n172
b00010000000000000000111111110111 n173
b01000001000100000000000000001111 n174
b10111111011000010101000001110110 n175
b00000001000001010010001000001110 n176
b10100111011000101000011000000000 n177
b11000010011101110110101110101100 n178
b00100001010000001000000001101010 n179
b10100111011000101000011000000100 n180
b00000001000100000000000000001110 n181
b10100111011000101000000000001110 n182
b00100001010000001000000001101010 n183
#5
b0 n1
b0 n77
b0 n100
b0 n109
#10
1!
b00000000000000000000000000000001 t
b1 n1
b1 n77
b1 n100
b1 n109
b0 n0
b0101 n2
b10000001110110001011110000100010 n3
b0 n4
b00001001001111010101000000000000 n5
b10111111011000010101000001110110 n6
b0101 n7
b000000000000 n8
b00000000000000000000000000000000 n9
b00001001 n10
b00000000000000000000000000000000 n11
b1101 n12
b0011 n13
b00001001001111010101000000000000 n14
b00000000000000000000000000000000 n15
b00000000000000000000000000000000 n16
b10111111011000010101000001110110 n17
b11000010011101110110101110101100 n18
b0 n19
b00000000000000000000000000000000 n20
b0101 n21
b00000000000000000000000000000000 n22
b10111111011000010101000001110100 n23
b1100 n24
b00000000000000000000000000000000 n25
b0000 n26
b00000000000000000000000000000100 n27
b0011 n28
b0000 n29
b1 n30
b0 n31
b0 n32
b00000000000000000000000000000000 n33
b00000000000000000000000000000000 n34
b0000 n35
b00000000000000000000000000000000 n36
b0000 n37
b0101 n38
b10000001110110001011110000100010 n39
b0 n40
b00001001001111010101000000000000 n41
b0 n42
b00000000000000000000000000000000 n43
b00000000000000000000000000000000 n44
b0000 n45
b00000000000000000000000000000000 n46
b0000 n47
b00000000000000000000000000000000 n48
b00000000000000000000000000000000 n49
b00000000000000000000000000000100 n50
b0011 n51
b10111111011000010101000001110110 n52
b1101 n53
b11000010011101110110101110101100 n54
b1 n55
b0 n56
b00000000000000000000000000000000 n57
b00000000000000000000000000000100 n58
b0 n59
b0101 n60
b00000000000000000000000000000000 n61
b10111111011000010101000001110100 n62
b1100 n63
b00000000000000000000000000000000 n64
b0000 n65
b00000000000000000000000000000100 n66
b0011 n67
b0000 n68
b1 n69
b0 n70
b0011 n71
b10111111011000010101000001110110 n72
b1101 n73
b11000010011101110110101110101100 n74
b1 n75
b0 n76
b00000001 n78
b00000001 n79
b0101 n80
b10000001110110001011110000100010 n81
b0 n82
b00001001001111010101000000000000 n83
b0 n84
b00000000000000000000000000000000 n85
b00000000000000000000000000000000 n86
b0000 n87
b00000000000000000000000000000000 n88
b0000 n89
b00000000000000000000000000000000 n90
b00000000000000000000000000000000 n91
b00000000000000000000000000000100 n92
b0011 n93
b10111111011000010101000001110110 n94
b1101 n95
b11000010011101110110101110101100 n96
b1 n97
b0 n98
b0 n99
b00100001010000001000000001101010 n101
b0 n102
b00100001010000001000000001101010 n103
b00 n104
b000 n105
b01000010100000010000000011010100 n106
b01000010100000010000000011010100 n107
b0 n108
b1111 n110
b0000000000000000 n111
b00111010011011101111000000000000 n112
b0 n113
b0 n114
b0101 n115
b10000001110110001011110000100010 n116
b0 n117
b00001001001111010101000000000000 n118
b0 n119
b00000000000000000000000000000000 n120
b00000000000000000000000000000000 n121
b0000 n122
b00000000000000000000000000000000 n123
b0000 n124
b00000000000000000000000000000000 n125
b00000000000000000000000000000000 n126
b00000000000000000000000000000100 n127
b0011 n128
b10111111011000010101000001110110 n129
b1101 n130
b11000010011101110110101110101100 n131
b1 n132
b0 n133
b00111010 n134
b00000000000000000000000000000000 n135
b00000000000000000000000000000100 n136
b0 n137
b00100001010000001000000001101010 n138
b0110 n139
b00100001010000001000000001101010 n140
b1110 n141
b0 n142
b0 n143
b0 n144
b00111010011011101111000000000000 n145
b0 n146
b0101 n147
b10000001110110001011110000100010 n148
b0 n149
b00001001001111010101000000000000 n150
b0 n151
b00000000000000000000000000000000 n152
b00000000000000000000000000000000 n153
b0000 n154
b00000000000000000000000000000000 n155
b0000 n156
b00000000000000000000000000000000 n157
b00000000000000000000000000000000 n158
b00000000000000000000000000000100 n159
b0011 n160
b10111111011000010101000001110110 n161
b1101 n162
b11000010011101110110101110101100 n163
b1 n164
b0 n165
b0 n166
b0 n167
b00010000000000000000111111110111 n168
b00010011011000100000011000001100 n169
b00010000000000000000111111110111 n170
b00010000000000000000111111110111 n171
b00110111011000000000000000011110 n172
b00010000000000000000111111110111 n173
b01000001000100000000000000001111 n174
b10111111011000010101000001110110 n175
b00000001000001010010001000001110 n176
b10100111011000101000011000000000 n177
b11000010011101110110101110101100 n178
b00100001010000001000000001101010 n179
b10100111011000101000011000000100 n180
b00000001000100000000000000001110 n181
b10100111011000101000000000001110 n182
b00100001010000001000000001101010 n183
#15
b0 n1
b0 n77
b0 n100
b0 n109
#20
1!
b00000000000000000000000000000010 t
b1 n1
b1 n77
b1 n100
b1 n109
b0 n0
b1111 n2
b01000010100000010000000011010100 n3
b0 n4
b00111010011011101111000000000000 n5
b00100001010000001000000001101010 n6
b1111 n7
b000000000000 n8
b00000000000000000000000000000000 n9
b00111010 n10
b00000000000000000000000000000000 n11
b1110 n12
b0110 n13
b00111010011011101111000000000000 n14
b00000000000000000000000000000000 n15
b00000000000000000000000000000000 n16
b00100001010000001000000001101010 n17
b00100001010000001000000001101010 n18
b0 n19
b00000000000000000000000000000000 n20
b1111 n21
b00000000000000000000000000000000 n22
b00100001010000001000000001101000 n23
b1100 n24
b00000000000000000000000000000000 n25
b0000 n26
b00000000000000000000000000000100 n27
b0110 n28
b0000 n29
b1 n30
b0 n31
b0 n32
b00000000000000000000000000000000 n33
b00000000000000000000000000000000 n34
b0000 n35
b00000000000000000000000000000000 n36
b0000 n37
b1111 n38
b01000010100000010000000011010100 n39
b0 n40
b00111010011011101111000000000000 n41
b0 n42
b00000000000000000000000000000000 n43
b00000000000000000000000000000000 n44
b0000 n45
b00000000000000000000000000000000 n46
b0000 n47
b00000000000000000000000000000000 n48
b00000000000000000000000000000000 n49
b00000000000000000000000000000100 n50
b0110 n51
b00100001010000001000000001101010 n52
b1110 n53
b00100001010000001000000001101010 n54
b1 n55
b0 n56
b00000000000000000000000000000000 n57
b00000000000000000000000000000100 n58
b0 n59
b1111 n60
b00000000000000000000000000000000 n61
b00100001010000001000000001101000 n62
b1100 n63
b00000000000000000000000000000000 n64
b0000 n65
b00000000000000000000000000000100 n66
b0110 n67
b0000 n68
b1 n69
b0 n70
b0110 n71
b00100001010000001000000001101010 n72
b1110 n73
b00100001010000001000000001101010 n74
b1 n75
b0 n76
b00000010 n78
b00000010 n79
b1111 n80
b01000010100000010000000011010100 n81
b0 n82
b00111010011011101111000000000000 n83
b0 n84
b00000000000000000000000000000000 n85
b00000000000000000000000000000000 n86
b0000 n87
b00000000000000000000000000000000 n88
b0000 n89
b00000000000000000000000000000000 n90
b00000000000000000000000000000000 n91
b00000000000000000000000000000100 n92
b0110 n93
b00100001010000001000000001101010 n94
b1110 n95
b00100001010000001000000001101010 n96
b1 n97
b0 n98
b0 n99
b00000001000100000000000000001110 n101
b0 n102
b10100111011000101000011000000100 n103
b00 n104
b000 n105
b10101000011100101000011000010010 n106
b10101000011100101000011000010010 n107
b0 n108
b1110 n110
b0000000000000000 n111
b00111010100101111110000000000000 n112
b0 n113
b0 n114
b1111 n115
b01000010100000010000000011010100 n116
b0 n117
b00111010011011101111000000000000 n118
b0 n119
b00000000000000000000000000000000 n120
b00000000000000000000000000000000 n121
b0000 n122
b00000000000000000000000000000000 n123
b0000 n124
b00000000000000000000000000000000 n125
b00000000000000000000000000000000 n126
b00000000000000000000000000000100 n127
b0110 n128
b00100001010000001000000001101010 n129
b1110 n130
b00100001010000001000000001101010 n131
b1 n132
b0 n133
b00111010 n134
b00000000000000000000000000000100 n135
b00000000000000000000000000001000 n136
b0 n137
b00000001000100000000000000001110 n138
b1001 n139
b10100111011000101000011000000100 n140
b0111 n141
b0 n142
b0 n143
b0 n144
b00111010100101111110000000000000 n145
b0 n146
b1111 n147
b01000010100000010000000011010100 n148
b0 n149
b00111010011011101111000000000000 n150
b0 n151
b00000000000000000000000000000000 n152
b00000000000000000000000000000000 n153
b0000 n154
b00000000000000000000000000000000 n155
b0000 n156
b00000000000000000000000000000000 n157
b00000000000000000000000000000000 n158
b00000000000000000000000000000100 n159
b0110 n160
b00100001010000001000000001101010 n161
b1110 n162
b00100001010000001000000001101010 n163
b1 n164
b0 n165
b0 n166
b0 n167
b00010000000000000000111111110111 n168
b00010011011000100000011000001100 n169
b00010000000000000000111111110111 n170
b00010000000000000000111111110111 n171
b00110111011000000000000000011110 n172
b00010000000000000000111111110111 n173
b01000001000100000000000000001111 n174
b10111111011000010101000001110110 n175
b00000001000001010010001000001110 n176
b10100111011000101000011000000000 n177
b11000010011101110110101110101100 n178
b00100001010000001000000001101010 n179
b10100111011000101000011000000100 n180
b00000001000100000000000000001110 n181
b10100111011000101000000000001110 n182
b00100001010000001000000001101010 n183
#25
b0 n1
b0 n77
b0 n100
b0 n109
#30
1!
b00000000000000000000000000000011 t
b1 n1
b1 n77
b1 n100
b1 n109
b0 n0
b1110 n2
b10101000011100101000011000010010 n3
b0 n4
b00111010100101111110000000000000 n5
b00000001000100000000000000001110 n6
b1110 n7
b000000000000 n8
b00000000000000000000000000000000 n9
b00111010 n10
b00000000000000000000000000000000 n11
b0111 n12
b1001 n13
b00111010100101111110000000000000 n14
b00000000000000000000000000000000 n15
b00000000000000000000000000000100 n16
b00000001000100000000000000001110 n17
b10100111011000101000011000000100 n18
b0 n19
b00000000000000000000000000000000 n20
b1110 n21
b00000000000000000000000000000000 n22
b00000001000100000000000000001100 n23
b1100 n24
b00000000000000000000000000000000 n25
b0000 n26
b00000000000000000000000000001000 n27
b1001 n28
b0000 n29
b1 n30
b0 n31
b0 n32
b00000000000000000000000000000000 n33
b00000000000000000000000000000000 n34
b0000 n35
b00000000000000000000000000000000 n36
b0000 n37
b1110 n38
b10101000011100101000011000010010 n39
b0 n40
b00111010100101111110000000000000 n41
b0 n42
b00000000000000000000000000000000 n43
b00000000000000000000000000000000 n44
b0000 n45
b00000000000000000000000000000000 n46
b0000 n47
b00000000000000000000000000000000 n48
b00000000000000000000000000000100 n49
b00000000000000000000000000001000 n50
b1001 n51
b00000001000100000000000000001110 n52
b0111 n53
b10100111011000101000011000000100 n54
b1 n55
b0 n56
b00000000000000000000000000000100 n57
b00000000000000000000000000001000 n58
b0 n59
b1110 n60
b00000000000000000000000000000000 n61
b00000001000100000000000000001100 n62
b1100 n63
b00000000000000000000000000000000 n64
b0000 n65
b00000000000000000000000000001000 n66
b1001 n67
b0000 n68
b1 n69
b0 n70
b1001 n71
b00000001000100000000000000001110 n72
b0111 n73
b10100111011000101000011000000100 n74
b1 n75
b0 n76
b00000011 n78
b00000011 n79
b1110 n80
b10101000011100101000011000010010 n81
b0 n82
b00111010100101111110000000000000 n83
b0 n84
b00000000000000000000000000000000 n85
b00000000000000000000000000000000 n86
b0000 n87
b00000000000000000000000000000000 n88
b0000 n89
b00000000000000000000000000000000 n90
b00000000000000000000000000000100 n91
b00000000000000000000000000001000 n92
b1001 n93
b00000001000100000000000000001110 n94
b0111 n95
b10100111011000101000011000000100 n96
b1 n97
b0 n98
b0 n99
b10100111011000101000000000001110 n101
b0 n102
b00000001000001010010001000001110 n103
b00 n104
b000 n105
b10101000011001111010001000011100 n106
b10101000011001111010001000011100 n107
b0 n108
b1111 n110
b0000000000000000 n111
b00011011010100001111000000000000 n112
b0 n113
b0 n114
b1110 n115
b10101000011100101000011000010010 n116
b0 n117
b00111010100101111110000000000000 n118
b0 n119
b00000000000000000000000000000000 n120
b00000000000000000000000000000000 n121
b0000 n122
b00000000000000000000000000000000 n123
b0000 n124
b00000000000000000000000000000000 n125
b00000000000000000000000000000100 n126
b00000000000000000000000000001000 n127
b1001 n128
b00000001000100000000000000001110 n129
b0111 n130
b10100111011000101000011000000100 n131
b1 n132
b0 n133
b00011011 n134
b00000000000000000000000000001000 n135
b00000000000000000000000000001100 n136
b0 n137
b10100111011000101000000000001110 n138
b0101 n139
b00000001000001010010001000001110 n140
b0000 n141
b0 n142
b0 n143
b0 n144
b00011011010100001111000000000000 n145
b0 n146
b1110 n147
b10101000011100101000011000010010 n148
b0 n149
b00111010100101111110000000000000 n150
b0 n151
b00000000000000000000000000000000 n152
b00000000000000000000000000000000 n153
b0000 n154
b00000000000000000000000000000000 n155
b0000 n156
b00000000000000000000000000000000 n157
b00000000000000000000000000000100 n158
b00000000000000000000000000001000 n159
b1001 n160
b00000001000100000000000000001110 n161
b0111 n162
b10100111011000101000011000000100 n163
b1 n164
b0 n165
b0 n166
b0 n167
b00010000000000000000111111110111 n168
b00010011011000100000011000001100 n169
b00010000000000000000111111110111 n170
b00010000000000000000111111110111 n171
b00110111011000000000000000011110 n172
b00010000000000000000111111110111 n173
b01000001000100000000000000001111 n174
b10111111011000010101000001110110 n175
b00000001000001010010001000001110 n176
b10100111011000101000011000000000 n177
b11000010011101110110101110101100 n178
b00100001010000001000000001101010 n179
b10100111011000101000011000000100 n180
b00000001000100000000000000001110 n181
b10100111011000101000000000001110 n182
b00100001010000001000000001101010 n183
#35
b0 n1
b0 n77
b0 n100
b0 n109
#40
1!
b00000000000000000000000000000100 t
b1 n1
b1 n77
b1 n100
b1 n109
b0 n0
b1111 n2
b10101000011001111010001000011100 n3
b0 n4
b00011011010100001111000000000000 n5
b10100111011000101000000000001110 n6
b1111 n7
b000000000000 n8
b00000000000000000000000000000000 n9
b00011011 n10
b00000000000000000000000000000000 n11
b0000 n12
b0101 n13
b00011011010100001111000000000000 n14
b00000000000000000000000000000000 n15
b00000000000000000000000000001000 n16
b10100111011000101000000000001110 n17
b00000001000001010010001000001110 n18
b0 n19
b00000000000000000000000000000000 n20
b1111 n21
b00000000000000000000000000000000 n22
b10100111011000101000000000001100 n23
b1100 n24
b00000000000000000000000000000000 n25
b0000 n26
b00000000000000000000000000001100 n27
b0101 n28
b0000 n29
b1 n30
b0 n31
b0 n32
b00000000000000000000000000000000 n33
b00000000000000000000000000000000 n34
b0000 n35
b00000000000000000000000000000000 n36
b0000 n37
b1111 n38
b10101000011001111010001000011100 n39
b0 n40
b00011011010100001111000000000000 n41
b0 n42
b00000000000000000000000000000000 n43
b00000000000000000000000000000000 n44
b0000 n45
b00000000000000000000000000000000 n46
b0000 n47
b00000000000000000000000000000000 n48
b00000000000000000000000000001000 n49
b00000000000000000000000000001100 n50
b0101 n51
b10100111011000101000000000001110 n52
b0000 n53
b00000001000001010010001000001110 n54
b1 n55
b0 n56
b00000000000000000000000000001000 n57
b00000000000000000000000000001100 n58
b0 n59
b1111 n60
b00000000000000000000000000000000 n61
b10100111011000101000000000001100 n62
b1100 n63
b00000000000000000000000000000000 n64
b0000 n65
b00000000000000000000000000001100 n66
b0101 n67
b0000 n68
b1 n69
b0 n70
b0101 n71
b10100111011000101000000000001110 n72
b0000 n73
b00000001000001010010001000001110 n74
b1 n75
b0 n76
b00000100 n78
b00000100 n79
b1111 n80
b10101000011001111010001000011100 n81
b0 n82
b00011011010100001111000000000000 n83
b0 n84
b00000000000000000000000000000000 n85
b00000000000000000000000000000000 n86
b0000 n87
b00000000000000000000000000000000 n88
b0000 n89
b00000000000000000000000000000000 n90
b00000000000000000000000000001000 n91
b00000000000000000000000000001100 n92
b0101 n93
b10100111011000101000000000001110 n94
b0000 n95
b00000001000001010010001000001110 n96
b1 n97
b0 n98
b0 n99
b00010000000000000000111111110111 n101
b0 n102
b00000001000100000000000000001110 n103
b00 n104
b000 n105
b00010001000100000001000000000101 n106
b00010001000100000001000000000101 n107
b0 n108
b0011 n110
b0000000000000000 n111
b00011010000110010011000000000000 n112
b0 n113
b0 n114
b1111 n115
b10101000011001111010001000011100 n116
b0 n117
b00011011010100001111000000000000 n118
b0 n119
b00000000000000000000000000000000 n120
b00000000000000000000000000000000 n121
b0000 n122
b00000000000000000000000000000000 n123
b0000 n124
b00000000000000000000000000000000 n125
b00000000000000000000000000001000 n126
b00000000000000000000000000001100 n127
b0101 n128
b10100111011000101000000000001110 n129
b0000 n130
b00000001000001010010001000001110 n131
b1 n132
b0 n133
b00011010 n134
b00000000000000000000000000001100 n135
b00000000000000000000000000010000 n136
b0 n137
b00010000000000000000111111110111 n138
b0001 n139
b00000001000100000000000000001110 n140
b1001 n141
b0 n142
b0 n143
b0 n144
b00011010000110010011000000000000 n145
b0 n146
b1111 n147
b10101000011001111010001000011100 n148
b0 n149
b00011011010100001111000000000000 n150
b0 n151
b00000000000000000000000000000000 n152
b00000000000000000000000000000000 n153
b0000 n154
b00000000000000000000000000000000 n155
b0000 n156
b00000000000000000000000000000000 n157
b00000000000000000000000000001000 n158
b00000000000000000000000000001100 n159
b0101 n160
b10100111011000101000000000001110 n161
b0000 n162
b00000001000001010010001000001110 n163
b1 n164
b0 n165
b0 n166
b0 n167
b00010000000000000000111111110111 n168
b00010011011000100000011000001100 n169
b00010000000000000000111111110111 n170
b00010000000000000000111111110111 n171
b00110111011000000000000000011110 n172
b00010000000000000000111111110111 n173
b01000001000100000000000000001111 n174
b10111111011000010101000001110110 n175
b00000001000001010010001000001110 n176
b10100111011000101000011000000000 n177
b11000010011101110110101110101100 n178
b00100001010000001000000001101010 n179
b10100111011000101000011000000100 n180
b00000001000100000000000000001110 n181
b10100111011000101000000000001110 n182
b00100001010000001000000001101010 n183
#45
b0 n1
b0 n77
b0 n100
b0 n109
